571630.MSc.Final.utf8
…
# checking the frequency of popularity in terms of counts 
tracks.2k %>% 
  group_by(popularity) %>% 
  summarise(counts = n())

## # A tibble: 101 x 2
##    popularity counts
##         <dbl>  <int>
##  1          0   8910
##  2          1   3029
##  3          2   2374
##  4          3   1853
##  5          4   1361
##  6          5   1280
##  7          6   1035
##  8          7   1008
##  9          8    914
## 10          9    832
## # ... with 91 more rows
…
# checking the frequency of popularity in terms of counts 
tracks.2k %>% 
  group_by(popularity) %>% 
  summarise(counts = n())

## # A tibble: 100 x 2
##    popularity counts
##         <dbl>  <int>
##  1          1   3029
##  2          2   2374
##  3          3   1853
##  4          4   1361
##  5          5   1280
##  6          6   1035
##  7          7   1008
##  8          8    914
##  9          9    832
## 10         10    790
## # ... with 90 more rows
…
# registerDoParallel()

In the following sequence, the model is tuned using the tune_grid-function and 10-fold cross-validation, based on the aforementioned performance/error metrics. The tune grid is set from 1 to 13, as the model features 13 independent variables. NOTE: to knit the Rmd-file to HTML without having to rerun the model tuning again, the previously saved data-object containing the results is simply loaded into the environment. The same goes for the later RF model.

Saving the object rf.tune.res.no.year so it can be simply loaded (making it quicker) in the future.

Having tuned the model, the individual metrics calculated using the 10-fold cross-validation are shown below. Thus, each of the 10 models created has different values for those metrics.

error.metrics.no.year <- rf.tune.res.no.year %>%
  collect_metrics()

error.metrics.no.year

## # A tibble: 39 x 7
##     mtry .metric  .estimator   mean     n std_err .config              
##    <int> <chr>    <chr>       <dbl> <int>   <dbl> <fct>                
##  1     1 mae      standard   12.0      10 0.0259  Preprocessor1_Model01
##  2     1 rmse     standard   15.1      10 0.0374  Preprocessor1_Model01
##  3     1 rsq_trad standard    0.191    10 0.00175 Preprocessor1_Model01
##  4     2 mae      standard   11.4      10 0.0258  Preprocessor1_Model02
##  5     2 rmse     standard   14.5      10 0.0377  Preprocessor1_Model02
##  6     2 rsq_trad standard    0.256    10 0.00180 Preprocessor1_Model02
##  7     3 mae      standard   11.4      10 0.0281  Preprocessor1_Model03
##  8     3 rmse     standard   14.5      10 0.0387  Preprocessor1_Model03
##  9     3 rsq_trad standard    0.258    10 0.00189 Preprocessor1_Model03
## 10     4 mae      standard   11.3      10 0.0276  Preprocessor1_Model04
## # ... with 29 more rows
…
registerDoParallel()

Having tuned the model, the individual metrics calculated using the 10-fold cross-validation are shown below. Thus, each of the 10 models created has different values for those metrics.

error.metrics.2021 <- rf.tune.res.2021 %>%
  collect_metrics()

error.metrics.2021

## # A tibble: 39 x 7
##     mtry .metric  .estimator   mean     n std_err .config              
##    <int> <chr>    <chr>       <dbl> <int>   <dbl> <fct>                
##  1     1 mae      standard   15.4      10 0.144   Preprocessor1_Model01
##  2     1 rmse     standard   18.9      10 0.182   Preprocessor1_Model01
##  3     1 rsq_trad standard    0.453    10 0.00924 Preprocessor1_Model01
##  4     2 mae      standard   13.3      10 0.158   Preprocessor1_Model02
##  5     2 rmse     standard   17.4      10 0.252   Preprocessor1_Model02
##  6     2 rsq_trad standard    0.537    10 0.0128  Preprocessor1_Model02
##  7     3 mae      standard   13.2      10 0.150   Preprocessor1_Model03
##  8     3 rmse     standard   17.3      10 0.257   Preprocessor1_Model03
##  9     3 rsq_trad standard    0.542    10 0.0131  Preprocessor1_Model03
## 10     4 mae      standard   13.1      10 0.151   Preprocessor1_Model04
## # ... with 29 more rows
…
